[
    {
        "id": 1,
        "project_name": "Project AAA",
        "content": [
            {
                "id": 1,
                "topic_name": "Span",
                "due_date_time": "2022-11-01",
                "publishing_date_time": "2022-11-01",
                "key_message": "lorem",
                "description": "Burn due to localized fire on board fishing boat, init",
                "content_format": "image",
                "post_type": "boost post"
            },
            {
                "id": 2,
                "topic_name": "Y-Solowarm",
                "due_date_time": "2022-11-02",
                "publishing_date_time": "2022-11-02",
                "key_message": "loremm",
                "description": "Other secondary osteonecrosis, right fibula",
                "content_format": "video",
                "post_type": "boost post"
            }
        ]
    },
    {
        "id": 2,
        "project_name": "Project BBB",
        "content": [
            {
                "id": 1,
                "topic_name": "Span",
                "due_date_time": "2022-11-01",
                "publishing_date_time": "2022-11-01",
                "key_message": "lorem",
                "description": "Burn due to localized fire on board fishing boat, init",
                "content_format": "image",
                "post_type": "boost post"
            },
            {
                "id": 2,
                "topic_name": "Y-Solowarm",
                "due_date_time": "2022-11-20",
                "publishing_date_time": "2022-11-20",
                "key_message": "loremm",
                "description": "Other secondary osteonecrosis, right fibula",
                "content_format": "video",
                "post_type": "boost post"
            }
        ]
    }
]