[
    {
        "id": 1,
        "project_name": "Project AAA",
        "client": "Client Organisation",
        "active_event": 2,
        "all_event": 5,
        "assignees": [
            {
                "id": 1,
                "first_name": "Adella",
                "last_name": "Asken",
                "short_name": "AA"
            },
            {
                "id": 2,
                "first_name": "Veronica",
                "last_name": "Clemenzo",
                "short_name": "VC"
            },
            {
                "id": 3,
                "first_name": "Fannie",
                "last_name": "Cordery",
                "short_name": "FC"
            },
            {
                "id": 4,
                "first_name": "Isadora",
                "last_name": "Fotherby",
                "short_name": "IF"
            }
        ]
    },
    {
        "id": 2,
        "project_name": "Project BBB",
        "client": "Client Organisation",
        "active_event": 2,
        "all_event": 5,
        "assignees": [
            {
                "id": 1,
                "first_name": "Adella",
                "last_name": "Asken",
                "short_name": "AA"
            },
            {
                "id": 2,
                "first_name": "Veronica",
                "last_name": "Clemenzo",
                "short_name": "VC"
            },
            {
                "id": 3,
                "first_name": "Fannie",
                "last_name": "Cordery",
                "short_name": "FC"
            },
            {
                "id": 4,
                "first_name": "Isadora",
                "last_name": "Fotherby",
                "short_name": "IF"
            }
        ]
    }
]